com\mycompany\consumiiendoapirest\forms\FormRestApi$1.class
com\mycompany\consumiiendoapirest\forms\Post.class
com\mycompany\consumiiendoapirest\forms\FormRestApi$2.class
com\mycompany\consumiiendoapirest\forms\FormRestApi.class
